Explore Parks Drinking Water Sources in Toronto
…
# identify datastore resources; by default, Toronto Open Data sets datastore resource format to CSV for non-geospatial and GeoJSON for geospatial resources
datastore_resources <- filter(resources, tolower(format) %in% c('csv', 'geojson'))
 
# load the first datastore resource as a sample
raw_water_resource_data <- filter(datastore_resources, row_number()==1) %>% get_resource()

raw_water_resource_data

Simple feature collection with 1215 features and 9 fields
Geometry type: POINT
Dimension:     XY
Bounding box:  xmin: -79.62262 ymin: 43.58575 xmax: -79.12498 ymax: 43.83023
Geodetic CRS:  WGS 84
# A tibble: 1,215 × 10
   `_id`    id asset_id location   alternative_name type  location_details url  
   <int> <int>    <int> <chr>      <chr>            <chr> <chr>            <chr>
 1     1   774    80165 Wenderly … Wenderly Park B… Bott… "Located north … http…
 2     2   593    80105 Fountainh… Fountainhead Pa… Bott… "Located on the… http…
 3     3  3697    78976 Clover Hi… Clover Hill Par… Bott… "Located on the… http…
 4     4  1000    74923 North Kip… North Kipling P… Bott… "Located outsid… http…
 5     5   306    78414 Withrow P… Withrow Park Fi… Bott… "Located on the… http…
 6     6  1470    79548 Morningsi… Morningside Par… Bott… "Located at the… http…
 7     7   263    79245 Bellevue … Bellevue Square… Bott… "Located on the… http…
 8     8   245    78685 Oriole Pa… Oriole Park Tor… Bott… "Located near t… http…
 9     9  2443    77374 Linkwood … Linkwood Lane P… Bott… "Located next t… http…
10    10   467    76643 Coronatio… Coronation Park… Bott… "Located on the… http…
# ℹ 1,205 more rows
# ℹ 2 more variables: address <chr>, geometry <POINT [°]>
…
